#PATCH FILE
# 1 patches
#Patch 0 CurvesInPatch 9
#Curve 0 PointsInCurve 41
-0.241782 -0.0323722 0.0631169
-0.235335 -0.0357402 0.0626892
-0.228888 -0.0391082 0.0622614
-0.222311 -0.0422176 0.0618127
-0.215733 -0.045327 0.0613639
-0.209137 -0.0483883 0.0609212
-0.20254 -0.0514496 0.0604784
-0.195874 -0.0543581 0.0600372
-0.189207 -0.0572666 0.059596
-0.182485 -0.0600447 0.0591644
-0.175762 -0.0628229 0.0587328
-0.168983 -0.065462 0.0583158
-0.162204 -0.0681011 0.0578987
-0.155371 -0.0705999 0.057502
-0.148538 -0.0730987 0.0571052
-0.141652 -0.0754538 0.0567343
-0.134767 -0.0778089 0.0563633
-0.127831 -0.0800173 0.0560237
-0.120895 -0.0822257 0.0556841
-0.113912 -0.0842839 0.0553813
-0.106929 -0.0863422 0.0550785
-0.0999003 -0.0882468 0.0548182
-0.0928718 -0.0901514 0.0545579
-0.0858009 -0.0918987 0.0543456
-0.07873 -0.093646 0.0541333
-0.0716199 -0.0952321 0.0539745
-0.0645097 -0.0968183 0.0538158
-0.0573637 -0.0982394 0.0537163
-0.0502176 -0.0996604 0.0536169
-0.0430394 -0.100913 0.053582
-0.0358612 -0.102165 0.0535471
-0.0286549 -0.103243 0.0535834
-0.0214487 -0.104321 0.0536198
-0.0142189 -0.105228 0.0537287
-0.00698918 -0.106136 0.0538376
0.000259319 -0.106834 0.054042
0.00750782 -0.107532 0.0542465
0.0147688 -0.108168 0.0544763
0.0220298 -0.108804 0.054706
0.0292992 -0.109056 0.0551256
0.0365687 -0.109309 0.0555452
#Curve 1 PointsInCurve 41
0.0365687 -0.109309 0.0555452
0.0484865 -0.109578 0.0565857
0.0604044 -0.109848 0.0576263
0.0723527 -0.109825 0.0583449
0.0843011 -0.109802 0.0590635
0.0962496 -0.109661 0.0596824
0.108198 -0.109519 0.0603013
0.120153 -0.109105 0.0606613
0.132108 -0.10869 0.0610214
0.144054 -0.107984 0.0611229
0.155999 -0.107279 0.0612243
0.167918 -0.106224 0.0610215
0.179838 -0.105169 0.0608187
0.191703 -0.103709 0.0602656
0.203568 -0.10225 0.0597125
0.215344 -0.100326 0.0587821
0.227119 -0.0984022 0.0578518
0.238756 -0.0959798 0.0564475
0.250393 -0.0935575 0.0550433
0.261805 -0.0903596 0.0533709
0.273217 -0.0871618 0.0516986
0.284278 -0.0828548 0.0501367
0.295339 -0.0785478 0.0485749
0.305964 -0.0732317 0.0471161
0.31659 -0.0679156 0.0456573
0.326672 -0.0615939 0.044351
0.336755 -0.0552721 0.0430447
0.346194 -0.047996 0.0419235
0.355632 -0.04072 0.0408023
0.364329 -0.0325392 0.0398991
0.373027 -0.0243584 0.0389959
0.380833 -0.0153118 0.0383552
0.388639 -0.00626516 0.0377146
0.395547 0.00352666 0.0373389
0.402455 0.0133185 0.0369633
0.408085 0.0238348 0.0369547
0.413715 0.0343511 0.0369461
0.418998 0.0452288 0.0370469
0.424281 0.0561064 0.0371477
0.427205 0.0676745 0.0378992
0.430129 0.0792426 0.0386508
#Curve 2 PointsInCurve 21
0.430129 0.0792426 0.0386508
0.438449 0.0792426 0.0365252
0.44672 0.0792426 0.0342143
0.454978 0.0792426 0.0318582
0.4632 0.0792426 0.0293803
0.471387 0.0792426 0.0267889
0.479533 0.0792426 0.0240735
0.487636 0.0792426 0.0212275
0.495688 0.0792426 0.018244
0.503685 0.0792426 0.015116
0.511622 0.0792426 0.011837
0.519492 0.0792426 0.00840042
0.527288 0.0792426 0.00480032
0.535004 0.0792426 0.00103097
0.542632 0.0792426 -0.00291298
0.550165 0.0792426 -0.00703572
0.557594 0.0792426 -0.0113435
0.564917 0.0792426 -0.0158308
0.572098 0.0792426 -0.0205368
0.579243 0.0792426 -0.0253103
0.586106 0.0792426 -0.0304708
#Curve 3 PointsInCurve 23
0.586106 0.0792426 -0.0304708
0.585887 0.0731832 -0.0311542
0.585667 0.0671238 -0.0318376
0.585152 0.0610302 -0.0319959
0.584637 0.0549365 -0.0321542
0.583884 0.0488874 -0.0323616
0.583131 0.0428383 -0.0325691
0.581935 0.0368504 -0.0326734
0.58074 0.0308625 -0.0327777
0.57901 0.0250115 -0.0329375
0.57728 0.0191604 -0.0330974
0.575099 0.0134657 -0.0334106
0.572918 0.0077709 -0.0337239
0.570555 0.00216834 -0.034253
0.568193 -0.00343422 -0.034782
0.565638 -0.00892226 -0.0355634
0.563082 -0.0144103 -0.0363447
0.560397 -0.0197882 -0.0374054
0.557712 -0.025166 -0.038466
0.55492 -0.0304026 -0.0398978
0.552128 -0.0356391 -0.0413296
0.549279 -0.0406955 -0.0432287
0.546124 -0.046021 -0.0453983
#Curve 4 PointsInCurve 41
0.546124 -0.046021 -0.0453983
0.53561 -0.0545338 -0.0341913
0.525402 -0.0627776 -0.0227138
0.512106 -0.0702625 -0.0137863
0.498811 -0.0777475 -0.00485887
0.485305 -0.084813 0.0034978
0.471799 -0.0918786 0.0118545
0.456889 -0.0981122 0.0185496
0.441979 -0.104346 0.0252448
0.426195 -0.109646 0.0304714
0.41041 -0.114946 0.0356979
0.393864 -0.119152 0.0393764
0.377317 -0.123359 0.0430549
0.360344 -0.12653 0.0456177
0.343371 -0.129702 0.0481805
0.326126 -0.131932 0.049736
0.308882 -0.134163 0.0512914
0.29149 -0.135533 0.0518974
0.274098 -0.136903 0.0525033
0.256656 -0.137536 0.0522694
0.239214 -0.138168 0.0520354
0.221787 -0.138185 0.0510691
0.204359 -0.138203 0.0501028
0.186984 -0.137736 0.0485219
0.169609 -0.13727 0.046941
0.152302 -0.136433 0.0448431
0.134996 -0.135596 0.0427451
0.11776 -0.134504 0.0402273
0.100524 -0.133413 0.0377095
0.0833502 -0.132172 0.0348625
0.066176 -0.130931 0.0320155
0.0490466 -0.129657 0.0289279
0.0319172 -0.128383 0.0258402
0.0148148 -0.127145 0.0225826
-0.00228764 -0.125908 0.0193249
-0.0193926 -0.124938 0.0160202
-0.0364976 -0.123967 0.0127154
-0.0535954 -0.122935 0.00929908
-0.0706932 -0.121903 0.00588279
-0.0878581 -0.121804 0.00273828
-0.105132 -0.121549 0.000564017
#Curve 5 PointsInCurve 30
-0.105132 -0.121549 0.000564017
-0.10524 -0.121393 0.00153426
-0.112177 -0.117568 0.0108057
-0.119114 -0.113742 0.0200771
-0.12848 -0.109117 0.0262901
-0.137845 -0.104492 0.0325031
-0.148342 -0.09981 0.0364737
-0.158838 -0.0951277 0.0404443
-0.169719 -0.0910551 0.0439177
-0.180601 -0.0869826 0.047391
-0.191852 -0.0833369 0.0501197
-0.203102 -0.0796911 0.0528483
-0.214603 -0.0764293 0.054921
-0.226104 -0.0731674 0.0569937
-0.237785 -0.0702058 0.0584141
-0.249466 -0.0672442 0.0598345
-0.261262 -0.0645119 0.0606246
-0.273057 -0.0617796 0.0614147
-0.284913 -0.0592036 0.0615952
-0.296768 -0.0566276 0.0617757
-0.308634 -0.0541342 0.0613537
-0.320499 -0.0516408 0.0609317
-0.332342 -0.049174 0.0599488
-0.344185 -0.0467072 0.0589658
-0.355917 -0.0441477 0.0573067
-0.36765 -0.0415881 0.0556475
-0.379406 -0.0390687 0.0537928
-0.391163 -0.0365492 0.0519382
-0.402528 -0.0335884 0.0489091
-0.413894 -0.0306276 0.04588
#Curve 6 PointsInCurve 21
-0.413894 -0.0306276 0.04588
-0.412522 -0.0252562 0.0460192
-0.411327 -0.0198408 0.0461528
-0.410161 -0.0144212 0.0462864
-0.409091 -0.00898107 0.0464182
-0.408099 -0.00352646 0.0465494
-0.407186 0.00194201 0.0466804
-0.406348 0.00742252 0.0468118
-0.405583 0.0129137 0.0469444
-0.404888 0.0184141 0.0470787
-0.404261 0.0239225 0.0472154
-0.403698 0.0294378 0.0473552
-0.403197 0.034959 0.0474986
-0.402754 0.040485 0.0476463
-0.402366 0.046015 0.0477991
-0.402031 0.0515484 0.0479575
-0.401745 0.0570842 0.0481223
-0.401504 0.0626221 0.0482937
-0.401311 0.0681614 0.0484742
-0.401137 0.0737016 0.048657
-0.401033 0.0792426 0.0488585
#Curve 7 PointsInCurve 21
-0.401033 0.0792426 0.0488585
-0.396588 0.0792425 0.0497711
-0.392142 0.0792424 0.0506835
-0.387695 0.0792423 0.051588
-0.383245 0.0792423 0.0524812
-0.378793 0.0792422 0.0533582
-0.374336 0.0792421 0.0542143
-0.369874 0.0792421 0.0550446
-0.365407 0.0792421 0.0558444
-0.360933 0.079242 0.0566089
-0.356453 0.079242 0.0573333
-0.351966 0.079242 0.0580126
-0.347472 0.079242 0.0586419
-0.34297 0.079242 0.0592163
-0.338461 0.0792421 0.0597307
-0.333945 0.0792421 0.0601804
-0.329422 0.0792422 0.0605597
-0.324894 0.0792423 0.0608671
-0.320362 0.0792424 0.0610818
-0.315825 0.0792425 0.0612709
-0.311287 0.0792426 0.0612767
#Curve 8 PointsInCurve 21
-0.311287 0.0792426 0.0612767
-0.309726 0.0726631 0.0614055
-0.307924 0.0661432 0.0615502
-0.306059 0.0596437 0.0616948
-0.304027 0.0531937 0.0618444
-0.301836 0.0467964 0.0619956
-0.299466 0.0404629 0.0621469
-0.296905 0.034204 0.0622963
-0.29414 0.0280329 0.0624418
-0.291155 0.0219644 0.0625814
-0.287939 0.0160152 0.0627129
-0.28448 0.0102035 0.0628341
-0.280769 0.00454898 0.0629428
-0.276797 -0.000925906 0.0630368
-0.27256 -0.0061983 0.0631137
-0.268057 -0.0112466 0.0631717
-0.263289 -0.0160431 0.0632083
-0.258273 -0.0205866 0.0632236
-0.252979 -0.0247872 0.0632104
-0.247584 -0.028899 0.0631893
-0.241782 -0.0323722 0.0631169
